// Jest Snapshot v1, https://goo.gl/fbAQLP

exports[`shallow-renders correctly 1`] = `
<div>
  <withStyles(Button)
    color="primary"
    raised={true}
  >
    Dummy Button
  </withStyles(Button)>
  <withStyles(IconButton)>
    <pure(Close) />
  </withStyles(IconButton)>
  <Card
    raised={false}
  >
    <withStyles(CardContent)>
      Lorem ipsum dolor sit amet, consectetur adipisicing elit, sed do eiusmod tempor incididunt ut labore et dolore magna aliqua. Ut enim ad minim veniam, quis nostrud exercitation ullamco laboris nisi ut aliquip ex ea commodo consequat. Duis aute irure dolor in reprehenderit in voluptate velit esse cillum dolore eu fugiat nulla pariatur. Excepteur sint occaecat cupidatat non proident, sunt in culpa qui officia deserunt mollit anim id est laborum.
    </withStyles(CardContent)>
  </Card>
  <ListComponent
    num={10}
  />
</div>
`;
