// Jest Snapshot v1, https://goo.gl/fbAQLP

exports[`shallow-renders correctly 1`] = `
<ul
  className="MuiGridList-root-2 withTheme-withWidth-DragDropContext-RctReorderableGridListComponent----root-1"
  style={
    Object {
      "margin": -2,
    }
  }
  width="md"
/>
`;
